{
  "pools": [
    {
      "rolls": 1,
      "entries": [{
        "type": "item",
        "name": "minecraft:ender_eye",
        "functions": [
          {
            "function": "set_nbt",
            "tag": "{display:{Name:\"§eAstral Dragon Eye\"},ench:[{id:48,lvl:1}],HideFlags:1}"
          }
        ]
      }]
    }
  ]
}
