{
  "pools": [
    {
      "rolls": 1,
      "entries": [
        {
          "type": "item",
          "name": "minecraft:iron_block",
          "functions": [
            {
              "function": "set_count",
              "count": {
                "min": 0,
                "max": 2
              }
            },
            {
              "function": "looting_enchant",
              "count": {
                "min": 0,
                "max": 1
              }
            }
          ]
        }
      ]
    },
    {
      "rolls": 1,
      "entries": [
        {
	      "conditions": [
	        {
	          "condition": "random_chance_with_looting",
	          "chance": 0.015,
	          "looting_multiplier": 0.001
	        }
	      ],
          "type": "item",
          "name": "minecraft:nether_wart_block",
          "functions": [
            {
              "function": "set_nbt",
              "tag": "{display:{Name:\"§aGiant's flesh\",Lore:[\"§7A rotting chunk of giant flesh\",\"§7Why even keep this? it reeks\",\"§a[α]\"]}}"
            },
            {
              "function": "set_count",
              "count": {
                "min": 1,
                "max": 3
              }
            }
          ]
        }
      ]
    },
    {
      "rolls": 1,
      "bonus_rolls": 2,
      "entries": [
        {
	      "conditions": [
	        {
	          "condition": "random_chance_with_looting",
	          "chance": 0.01,
	          "looting_multiplier": 0.005
	        }
	      ],
          "type": "item",
          "name": "minecraft:iron_sword",
          "functions": [
            {
              "function": "set_nbt",
              "tag": "{display:{Name:\"§6Giant's sword\",Lore:[\"§7A sword wielded by giants\",\"§7It seems time has taken its toll on this sword\",\"§6[δ]\"]}}"
            },
            {
              "function": "minecraft:set_attributes",
              "modifiers": [
                {
                  "attribute": "generic.attackSpeed",
                  "name": "Attack speed",
                  "amount": {
                    "min": -4.5,
                    "max": -1.5
                  },
                  "operation": "addition",
                  "slot": [
                    "mainhand"
                  ]
                },
                {
                  "attribute": "generic.attackDamage",
                  "name": "Attack damage",
                  "amount": 6.5,
                  "operation": "addition",
                  "slot": [
                    "mainhand"
                  ]
                }
              ]
            },
            {
              "function": "set_damage",
              "damage": {
                "min": 0.25,
                "max": 0.75
              }
            },
            {
              "function": "minecraft:enchant_randomly",
              "enchantments": [
                "minecraft:sweeping",
                "minecraft:thorns"
              ]
            },
            {
              "function": "minecraft:enchant_randomly",
              "enchantments": [
                "minecraft:vanishing_curse"
              ]
            }
          ]
        }
      ]
    }
  ]
}
