{
    "pools": [
      {
        "rolls": 1,
        "entries": [
          {
            "type": "item",
            "name": "minecraft:gold_nugget",
            "functions": [
              {
                "function": "set_count",
                "count": {
                  "min": 0,
                  "max": 2
                }
              },
              {
                "function": "looting_enchant",
                "count": {
                  "min": 0,
                  "max": 1
                },
                "limit": 2
              }
            ]
          }
        ]
      },
      {
        "rolls": 1,
        "bonus_rolls": 1,
        "entries": [
          {
            "conditions": [
              {
                "condition": "random_chance_with_looting",
                "chance": 0.05,
                "looting_multiplier": 0.01
              }
            ],
            "type": "item",
            "name": "minecraft:spider_eye",
            "functions": [
              {
                "function": "set_nbt",
                "tag": "{display:{Name:\"§aForgotten Words\",Lore:[\"§7Half a heart for half a promise\",\"§a[α]\"]}}"
              }
            ]
          }
        ]
      },
      {
        "rolls": 1,
        "bonus_rolls": 1,
        "entries": [
          {
            "conditions": [
              {
                "condition": "random_chance_with_looting",
                "chance": 0.05,
                "looting_multiplier": 0.01
              }
            ],
            "type": "item",
            "name": "minecraft:paper",
            "functions": [
              {
                "function": "set_nbt",
                "tag": "{display:{Name:\"§aLove Letter\",Lore:[\"§7A letter of love\",\"§7Reading it is probably an act of Obstruction of Correspondence!\",\"§a[α]\"]}}"
              }
            ]
          }
        ]
      },
      {
        "rolls": 1,
        "bonus_rolls": 1,
        "entries": [
          {
            "conditions": [
              {
                "condition": "random_chance_with_looting",
                "chance": 0.1,
                "looting_multiplier": 0.02
              }
            ],
            "type": "item",
            "name": "minecraft:dye",
            "functions": [
              {
                "function": "set_nbt",
                "tag": "{display:{Name:\"§5Chocolates\",Lore:[\"§7Valentine's Day 2024\"]}}"
              },
              {
                "function": "minecraft:set_data",
                "data": 3
              }
            ]
          }
        ]
      }
    ]
  }
  